master_names,mplus_names,ses_group
sqrt_male_prop,male,sex
sqrt_white_prop,white,race
sqrt_pop_non_hispanic_black,nhb,race
sqrt_hispanic_prop,hisp,race
sqrt_age_under_5_prop,age1,age
sqrt_age_5_17_prop,age2,age
sqrt_age_18_39_prop,age3,age
sqrt_age_40_64_prop,age4,age
sqrt_age_over_65_prop,age65,age
sqrt_poverty_prop,poverty,disadv
sqrt_family_type_female_householder_prop,fem_head,disadv
sqrt_family_type_single_prop,single,disadv
sqrt_mgmt_prof_prop,mp_job,adv
sqrt_fem_mgmt_prof_prop,f_mp_job,adv
sqrt_male_mgmt_prof_prop,m_mp_job,adv
sqrt_housing_rental_prop,rental,disadv
sqrt_crowded_prop,crowd,disadv
sqrt_over_16_unemployed_prop,unmplyd,disadv
sqrt_over_25_less_than_hs_grad_prop,hs_drpt,adv
sqrt_phone_service_prop,phone,disadv
sqrt_public_assistance_prop,pa,disadv
sqrt_vehicle_none_prop,no_car,disadv
sqrt_internet_prop,internet,disadv