TITLE:	
	NYC SES Model 2-2, m and f occ;
	
DATA:	
	FILE = "~/Documents/Projects/10-COVID/COVID/NY-Corona/output/nyc_ses_zcta_mplus.csv";
		
VARIABLE:	
	NAMES ARE
		MODZCTA poverty fem_head single f_mgmt f_profl mgmt profl rental m_mgmt 
		m_profl crowd unmplyd hs_drpt phone nhb pa no_car;
	MISSING ARE ALL (-9999);
	IDVARIABLE IS MODZCTA;
	USEVARIABLES ARE
		poverty fem_head single f_mgmt f_profl rental m_mgmt 
		m_profl crowd unmplyd hs_drpt phone nhb pa no_car;

       CLASSES = disadv(2) adv(2);

ANALYSIS: 
		TYPE = MIXTURE;
    	PARAMETERIZATION = LOGLINEAR;
    	STARTS = 250, 10;

MODEL:
    	%OVERALL%
    	disadv WITH adv;

    	MODEL disadv:
    	%disadv#1%
    	[poverty fem_head single rental crowd unmplyd phone nhb pa no_car]
    	%disadv#2%
    	[poverty fem_head single rental crowd unmplyd phone nhb pa no_car]

    	MODEL adv:
    	%adv#1%
    	[f_mgmt f_profl m_mgmt m_profl hs_drpt]
    	%adv#2%
    	[f_mgmt f_profl m_mgmt m_profl hs_drpt]


PLOT:
    	TYPE IS plot2 plot3;
    	SERIES IS 
       		poverty fem_head single rental crowd unmplyd phone nhb pa no_car
       		f_mgmt f_profl m_mgmt m_profl hs_drpt(*);

SAVEDATA: 
    	FILE IS nyc_ses_mf_2_2_probs.txt;
    	FORMAT IS FREE;
    	SAVE = CPROBABILITIES;

OUTPUT:
    	tech4;
    	SVALUES;