TITLE:	
	NC SES & Pollution Model 2-2-2;
	
DATA:	
	FILE = "~/Documents/Projects/1-project_NATA/4-Code/NATA_R_code/v2/
		Output/NATA_log_ACS_1yr_prop_2014_NC_MPlus.csv";
		
VARIABLE:	
	NAMES ARE
		Tract PRFL_M PRFL_F LS_HS SINGLE HSHLDR_F NHBLK PA POV NO_VHCL 
		RENT CROWD UNMPLYD PHONE ACET BENZENE BUTA CARBON DIESEL ETHYL FORM HEXANE LEAD 
		MANG MERC METH METHYL NICK TOLUENE XYLENE;
	MISSING ARE ALL (-999);
	IDVARIABLE IS Tract;
	USEVARIABLES ARE
       	PRFL_M PRFL_F LS_HS SINGLE HSHLDR_F NHBLK PA POV NO_VHCL RENT 
       	CROWD UNMPLYD PHONE ACET BENZENE BUTA CARBON DIESEL ETHYL FORM HEXANE LEAD MANG 
       	MERC METH METHYL NICK TOLUENE XYLENE;

       CLASSES = disadv(2) adv(2) poln(2);

ANALYSIS: 
		TYPE = MIXTURE;
    	PARAMETERIZATION = LOGLINEAR;
    	STARTS = 250, 10;

MODEL:
    	%OVERALL%
    	disadv WITH adv poln;
    	adv WITH poln;

    	MODEL disadv:
    	%disadv#1%
    	[SINGLE HSHLDR_F NHBLK PA POV NO_VHCL RENT CROWD UNMPLYD PHONE]
    	%disadv#2%
    	[SINGLE HSHLDR_F NHBLK PA POV NO_VHCL RENT CROWD UNMPLYD PHONE]

    	MODEL adv:
    	%adv#1%
    	[PRFL_M PRFL_F LS_HS]
    	%adv#2%
    	[PRFL_M PRFL_F LS_HS]

    	MODEL poln:
    	%poln#1%
    	[ACET BENZENE BUTA CARBON ETHYL FORM HEXANE METH METHYL TOLUENE XYLENE 
    	LEAD MANG MERC NICK DIESEL]
    	%poln#2%
    	[ACET BENZENE BUTA CARBON ETHYL FORM HEXANE METH METHYL TOLUENE XYLENE 
    	LEAD MANG MERC NICK DIESEL]


PLOT:
    	TYPE IS plot2 plot3;
    	SERIES IS 
       		PRFL_M PRFL_F LS_HS SINGLE HSHLDR_F NHBLK PA POV NO_VHCL RENT 
       		CROWD UNMPLYD PHONE ACET BENZENE BUTA CARBON DIESEL ETHYL FORM HEXANE LEAD 
       		MANG MERC METH METHYL NICK TOLUENE XYLENE(*);

SAVEDATA: 
    	FILE IS ses_poln_2_2_2_probs.txt;
    	FORMAT IS FREE;
    	SAVE = CPROBABILITIES;

OUTPUT:
    	tech4;
    	SVALUES;