MODZCTA,ARTHRITIS,CANCER,KIDNEY,COPD,CHD,CASTHMA,DIABETES,BPHIGH,HIGHCHOL,STROKE,CSMOKING,OBESITY,sqrt_male_prop,sqrt_white_prop,sqrt_pop_non_hispanic_black_prop,sqrt_hispanic_prop,sqrt_age_over_65_prop
10001,0.3889270573912319,0.23471059501056576,0.15003627830872684,0.19424973821714203,0.2033490550894853,0.2849437270256232,0.2593976628870684,0.4610470135955641,0.520614420829178,0.1432913713256227,0.3325983684348707,0.3907304770861416,0.7194034753748472,0.8103786663777647,0.27227794321876225,0.36818919044286463,0.2955198677941526
10002,0.4391616635971847,0.23468469291876157,0.19455067744768686,0.2504457876894222,0.2670433827312984,0.2923810789863425,0.37986248593267785,0.5474527408574218,0.5903134663401877,0.19868526410181198,0.42147739502746595,0.41154832948007103,0.6943184653261002,0.5541498873572148,0.25856258692476985,0.5375035282086476,0.36476725024583817
10003,0.3491522138689016,0.21777367482321,0.1290635664501129,0.16931075868544382,0.16789140386762644,0.2880933158334127,0.20969502552750188,0.4028425678282813,0.4789729049164567,0.11769345455357766,0.3186793287879869,0.3593278386980784,0.7006749324132089,0.8810753787493992,0.18979063760084697,0.27745013987995765,0.2773188933985509
10004,0.27068993925795054,0.16888028308571224,0.1042243871510028,0.12865434961252503,0.11688108992057465,0.2771728630491799,0.16146732919791434,0.3287852308339076,0.41243807744240596,0.08745438736879571,0.29466553971606857,0.3378947497251329,0.69602233465660035,0.8530519175547033,0.14101032336791466,0.269499268335331,0.16204768442618864
10005,0.24899856744890514,0.15271276078994178,0.09860957618743167,0.12551405048026756,0.10398862232071197,0.28140072215230777,0.14560725908996755,0.30682552662238416,0.3875009822683757,0.08199907631104689,0.30606840907512306,0.33674162682150094,0.6888783700165302,0.8578729768892654,0.15779652976208974,0.22502885949320423,0.12841422591294166
10006,0.24494897427831783,0.15491933384829668,0.09486832980505139,0.1140175425099138,0.1,0.2720294101747089,0.1414213562373095,0.30331501776206204,0.38858718455450897,0.07745966692414834,0.27568097504180444,0.3286335345030997,0.6554025857651765,0.8338569288142479,0.11174521339154046,0.3649583386769278,0.04458484170945423
10007,0.33150166667996084,0.1948435013130131,0.13319977202365788,0.16898614827581532,0.17183875609047555,0.2790760096158511,0.23756079395024002,0.4076492884477572,0.48136967865745983,0.12760588770862513,0.33937214997226606,0.35814845502973075,0.7189727421043991,0.790894254780756,0.2034728140152988,0.2641134145372378,0.25256960222645486
10009,0.4015795615015291,0.22960612091359142,0.16470397599064543,0.21409112446500586,0.2162364140536673,0.29709142033785346,0.2967932556231091,0.4798528503883702,0.5338127357816351,0.15897838156997116,0.37167609757699716,0.41861359233101425,0.6734762495900457,0.7750299805069302,0.2890342186681145,0.511959812540082,0.3095343124776413
10010,0.370768852546536,0.23071802010708717,0.13856246013237805,0.17895104666062658,0.18244459253805295,0.28740624159905326,0.23042563126290436,0.42970495632312833,0.5003384359279968,0.12841116155435459,0.3196090875977333,0.3691305926058012,0.7042619251420273,0.871339804579461,0.2071916977192674,0.3462487730233134,0.30699833899944223
10011,0.3821856501535992,0.2376794415088783,0.14124057743007087,0.18239950639507752,0.189625816522573,0.2841353571305629,0.23577270330192676,0.44194667590373815,0.515690504053964,0.13043535086922736,0.32253962511976425,0.38394943654007185,0.7133690152255533,0.8754588708524892,0.23646065299100605,0.3307028208365783,0.3012754875643368
10012,0.37137766023095387,0.22863038111551812,0.1415592576852847,0.18124567804485386,0.19038752360779015,0.28206434546093684,0.24756587571270222,0.4386583920880806,0.5153390589234559,0.1328114174090712,0.32898295237721836,0.36032367638557383,0.7032240767663819,0.8225120144585839,0.15245274932135006,0.2534481581413035,0.3085829053368042
10013,0.3734262710681493,0.22112980827059572,0.14843267182300576,0.18849105278119016,0.19915174000742844,0.27998017790557256,0.27200095981421046,0.45363168658365444,0.5254435637531792,0.14420629952356487,0.34918515789490445,0.36449742120640444,0.7160846291849479,0.7620420587883125,0.1937075217390904,0.25355566059149226,0.3144647658369436
10014,0.3775267004702801,0.23865127292931732,0.13593311970938968,0.1743418881714846,0.18173350980699957,0.28433385444920367,0.22313966638667682,0.4307374856539349,0.5087110831038932,0.12508381373651967,0.3110086969330224,0.37703505248587516,0.7095399471458855,0.9210640933109893,0.1561130942115034,0.30303350279450036,0.310998876275418
10016,0.35833372968720983,0.22306741685127957,0.1345559364565344,0.1718400000088628,0.17434597145197087,0.2862589913881828,0.22283695997511901,0.4168207600556928,0.4907012677437604,0.12289985602779367,0.31590081729970104,0.3624955660292405,0.688239357757706,0.8455379083670801,0.20218310699149727,0.33930196075019636,0.31620651438885167
10017,0.3803416922012069,0.24566854600716037,0.13608464038748874,0.16967465136685894,0.18231291896323712,0.27840338036680967,0.22506589023291776,0.4325649592234711,0.5124065331502533,0.12471702384510233,0.29152965948028864,0.3564084310333951,0.6983552247380956,0.8794909978945009,0.12708652953915334,0.25368278717759285,0.36177213304924627
10018,0.3106295934015254,0.18412993471911795,0.12293239695983521,0.1537764869116085,0.14723766771263294,0.27833999823986944,0.20732440489235232,0.3849871040462209,0.4587216279127175,0.1074089249743461,0.32878939403082985,0.36883873917443194,0.731535800280042,0.774546289789438,0.25006706090469943,0.39876889715091784,0.17888618278501994
10019,0.37624827725045856,0.2315735742714074,0.14403593358303562,0.18042696692649074,0.189948141372833,0.2805698355423644,0.24670451413074032,0.44537088267841857,0.5128475759693375,0.13358820388665685,0.32432127452777443,0.3803568521211141,0.7141194701653788,0.8133976977515108,0.23848186615246655,0.4174132080034214,0.31871945618983794
10021,0.4172959477535081,0.27365299971765006,0.14642765233325644,0.1842504924538977,0.20050155832471395,0.2833174304630752,0.2356043798871792,0.4608381939682002,0.5360348713722682,0.13662683352308647,0.28944000338680714,0.36654609941264643,0.6649899025565278,0.9145984914899464,0.11726818116738014,0.31044827325466123,0.37007869260537746
10022,0.4222711477349559,0.2783548249889378,0.14878170709758104,0.18604105475752303,0.20860633868036582,0.2797531614198297,0.2427134034290988,0.4707540565946208,0.5440130648899368,0.1393329317340737,0.2851750105606182,0.3634458046983951,0.6658741353708563,0.9203539282699925,0.13169148128016944,0.24917516122818725,0.3991143457920203
10023,0.40706772342621206,0.26104220256975336,0.1457752466477463,0.183308406329295,0.19762259012767908,0.28279537836181745,0.24185769410652305,0.4595050701099395,0.5324843511049849,0.1364445529492123,0.29999832326828546,0.37409783274448144,0.6721373663553356,0.8880875134963997,0.1844869633667653,0.31150887628876117,0.34908933790735625
10024,0.4135805117557386,0.2574689172533054,0.1519701977267926,0.19349720025543202,0.20518701077223395,0.28840962891937766,0.25734109036587033,0.4729130491100024,0.5384124816488142,0.14302746557482332,0.3129171824341123,0.38810876820317447,0.671122929356398,0.873602821967823,0.23448977369281573,0.36745723878535863,0.3438586831550338
10025,0.42116293210154165,0.25218523406081916,0.16322017518392892,0.2088559278326442,0.21805700284363458,0.29554776470529726,0.28459203904335273,0.49198014920038147,0.5430388844751195,0.15713646787849864,0.3370582693416957,0.40793855631359865,0.6672183095248647,0.801867393660074,0.30743472556436313,0.4838243343069649,0.35115566436697815
10026,0.4172178682275703,0.21974453802022015,0.17269956690052424,0.22413611081170962,0.21595050969120852,0.3220576803264018,0.3197441189040952,0.5333517873559537,0.5287593567604508,0.17612744695954136,0.4069269143031879,0.47798106168999954,0.6858482997394102,0.5405863429835692,0.6666824343767638,0.4904524058436935,0.2664666081162325
10027,0.3991435306094062,0.2133265861119418,0.16723443178410707,0.21838508883889907,0.2099159229273693,0.31998575637298915,0.30327525208310024,0.504978115529401,0.510034124980799,0.16911078704527083,0.39260049022237614,0.45631405031339856,0.6741737436775199,0.5829586736438175,0.6131961996487841,0.4745717552320323,0.2577316925167928
10028,0.4177584363885423,0.27261629596221576,0.14600397141149754,0.18459163331229675,0.19917416344631897,0.2842818182229755,0.23588169968141467,0.4606135616482469,0.5382437257106102,0.13582677662338047,0.2888536777798093,0.36813911748469774,0.6491755870738561,0.9383386564811177,0.10604180808350666,0.2624865200537381,0.36390961337047767
10029,0.4292450722149043,0.22392720036543837,0.189569357509457,0.2436739470470617,0.2436159209122989,0.31423306105234083,0.3528328942537889,0.5359663103912986,0.5529377529332984,0.18836497241379307,0.4196531208489272,0.4843031810704749,0.6775449422358469,0.5760571549498157,0.49715827494276615,0.6934915418318718,0.2836637944525482
10030,0.4341003751847066,0.21469903006664662,0.1841723723595367,0.2473220643991961,0.22945369706317142,0.3394989889185071,0.3444532903367524,0.5655280094608011,0.5334705283309483,0.19640498792528682,0.4427735952725062,0.514460906715265,0.6863887008279774,0.4432590767200601,0.7397036469685476,0.5158391848697506,0.24510858528227292
10031,0.4224014964225467,0.21749016120912115,0.1857493650002804,0.23790112214072837,0.23491926106351424,0.31735259021694995,0.34715272511213535,0.5355882952495171,0.5458899688164319,0.18502641852267082,0.42101052251624965,0.4918747192052677,0.7070300578834852,0.5358257649160121,0.5227182480292969,0.7032921248486691,0.2691252045465067
10032,0.4208978426192704,0.2217006840190544,0.18603290324639052,0.2333398565245711,0.23926155938634858,0.307953976550347,0.3498537851677826,0.5249678533403332,0.5545916616671541,0.17957885055798375,0.4077943022831468,0.48031080644878,0.708214231796511,0.5560076575659141,0.3877095868130564,0.8048503485901229,0.29257983788066094
10033,0.4088204282827154,0.2250624835479851,0.176787837261998,0.22113917162571828,0.22911081199128347,0.29801349733726273,0.32871288010008753,0.49595545319892204,0.5500749177028218,0.16318356694032765,0.38739789983379863,0.45575031122390375,0.7054913295840824,0.6449469401808433,0.21494871978244073,0.8170211834464848,0.3022293745122322
10034,0.42081645225262576,0.2262327265288449,0.18134595145525376,0.23131881662661555,0.23396102371497826,0.30134678390499564,0.33778925011886213,0.5087851487944162,0.5572102919292508,0.1705530409237542,0.4005908212469324,0.471831651711218,0.6874691675648406,0.6352382547932421,0.22909475168244367,0.8304162296184107,0.2938817582918563
10035,0.44453989796664667,0.2201198272990756,0.20167676977163962,0.26764534681685626,0.2608485822157098,0.32726808638013655,0.3775313223735802,0.5657298032865379,0.5621176621347178,0.20682041110112162,0.45967799611486104,0.5201519847745744,0.696669282968675,0.44673710301609365,0.5927247001913906,0.6896737456540604,0.28117145632961277
10036,0.3592562551813848,0.21400316670997616,0.14051875912295947,0.18065005068740606,0.18598270535421804,0.27850449600819815,0.24571946638542072,0.4368759511667115,0.5022835170916915,0.13148478009916023,0.33533594149406354,0.38632378431539216,0.7586076895275395,0.8076975302365905,0.2528819499426164,0.4267900939885802,0.25853449233695086
10037,0.4605653647661235,0.23487706271918146,0.19403918644320722,0.2526734022709392,0.24420101360319427,0.33842509458595943,0.36154738517644597,0.5922743429724393,0.5501377734609755,0.20815613708057565,0.42722506460983734,0.5145999554054441,0.6687865883015828,0.3596479231502804,0.7942478439258487,0.46619576710101324,0.2830536029848637
10038,0.3881966742046904,0.21302971442871146,0.16968099512213208,0.21951408989310298,0.23314900829166982,0.28366792081534264,0.32866671629445754,0.4874290301842423,0.5380220836535073,0.17472160326809852,0.3873015088951497,0.3646699253415244,0.6959466586933031,0.6431885910644275,0.23902003045707088,0.2963869843502047,0.3280995699663865
10039,0.4527907767131229,0.22555852207348948,0.19363223243102923,0.2576738836534848,0.24131030757764374,0.3420329872322291,0.3616784785516014,0.5814791700412272,0.5448665364042125,0.2067873909285905,0.4430677046217864,0.5201031459884302,0.6659326322407333,0.36615397230983165,0.7649132488850603,0.5565925714772648,0.2616615757777608
10040,0.4233173460778712,0.23278551727685615,0.18384332722804295,0.22929650311753408,0.23972537124467425,0.2989797015683397,0.34088310763629837,0.5113706280018572,0.5602183207414977,0.17238626104219004,0.3903584535826619,0.4655551589811104,0.6896218803755808,0.6089664062398793,0.22961063404333676,0.8281134935793045,0.305063889347353
10044,0.4151157311330344,0.24933149622341014,0.15862964749072164,0.20205275339147039,0.2167687251798676,0.28896121716765577,0.2889367323431625,0.5029601083528281,0.5470998448986619,0.15809598384542373,0.3356220202373906,0.4016408972479847,0.6844563797562508,0.6971207903944391,0.35259012901542297,0.36815469840676845,0.3515571570570517
10065,0.4230214297598489,0.2788909472950438,0.14913952502761305,0.18556529500266175,0.20641953657293058,0.28105197818816613,0.24040161734910787,0.4686369596973848,0.542274617551844,0.1396233284998628,0.28674314093937686,0.3648967841695353,0.6691466214772753,0.9367341902558679,0.14730821993821525,0.2520980009810265,0.3918734418450499
10069,0.42753413822635233,0.2697353811600447,0.15780824505802,0.19627128295007695,0.21147997587767337,0.28645216131139195,0.26456210660593243,0.48568680743331866,0.5500099809471316,0.14902323815588606,0.312955998182284,0.38730018031389507,0.6469454307584824,0.8568384111982362,0.23824830989807189,0.33770187028130205,0.3687340635995346
10075,0.41722340803929187,0.27063632723841763,0.14684922330331887,0.18649047542771502,0.20007973604189708,0.2856323808700971,0.2369093892907242,0.4606550988521165,0.5369081038779777,0.13725545654311985,0.2942677051600083,0.37077232499957974,0.655851659165368,0.9238362354980372,0.09610988240173257,0.3338934053543512,0.35215039011141785
10128,0.39741002233029304,0.2537038666226083,0.1428123399474564,0.18077441984923995,0.18950800467739437,0.28610192416562896,0.23722477840622874,0.44849853967838593,0.5231446077734007,0.1320992404023455,0.30238871345620894,0.3739318407343025,0.6493524993651709,0.8861652012232315,0.2048827543242026,0.35548855253355754,0.33388040671530833
10280,0.3424504335189279,0.21777075057446812,0.12649110640673517,0.15025278764213587,0.15628211607783926,0.2725868683134445,0.20345220187094992,0.39832787733654723,0.48570165319989556,0.10954451150103323,0.29408621614252195,0.35840675379434,0.7089517103031109,0.8647250714336203,0.11470425630662875,0.2715093799590148,0.22451682099405015
10282,0.340587727318528,0.216794833886788,0.12649110640673517,0.15165750888103102,0.15491933384829668,0.27568097504180444,0.19493588689617927,0.3924283374069717,0.4764451699828638,0.10954451150103323,0.30331501776206204,0.3619392214170772,0.7097328831430876,0.8774075918358569,0.10137257872084103,0.23624453690825029,0.18816366658663786
10301,0.48834166124449563,0.24563557887579218,0.17145842850885146,0.24383323604241458,0.23469586255910457,0.3113483213279489,0.3301733215860987,0.5417634977609325,0.5676772983219076,0.17189057982154626,0.4194041201818285,0.5456516898307909,0.7010883457696675,0.7671546310037437,0.46183861014372973,0.4662501133606729,0.3068729973284986
10302,0.4799586229003778,0.23761150045807733,0.1699290160575301,0.2433794057573734,0.229553680278218,0.31062319363843244,0.32685536200899107,0.5321925421913843,0.5611771940279882,0.16883235220349277,0.4327617564451005,0.555778295929617,0.7066334094905413,0.8283049266337117,0.37436680031068587,0.5827854803901642,0.28879526217140394
10303,0.46637528830015446,0.21782369427212675,0.1717424843836091,0.2419673458682942,0.22345480650013425,0.3186824154605475,0.3387476031728117,0.5366747370928372,0.5512073879149898,0.17041083765626036,0.44844406288819294,0.5741294913418039,0.701941316766535,0.7203403022440609,0.5065517981614748,0.6225629840480559,0.2546101249283309
10304,0.494321531465103,0.24808965452685167,0.17569301157991535,0.2510517114007247,0.24104547496089584,0.3141966546571776,0.33974034724457564,0.549965126339638,0.5722442731688099,0.17729160860759152,0.4282417201255993,0.5447515967398922,0.6924153803090073,0.7610344424326259,0.44677367900751147,0.48396868429382917,0.3271541275123848
10305,0.5000574312054431,0.2550872037140751,0.17023722140450662,0.2557714019559166,0.24100680333065544,0.3076107750885349,0.3204582489499978,0.5327493595740882,0.5782188462446419,0.17001991794800744,0.4313568735769225,0.5262957727925842,0.6920884580417055,0.8648046137188081,0.24333774346236284,0.4269338984848896,0.3139583873630918
10306,0.5135960782633533,0.2692238629668282,0.1684716664841427,0.2558311711902404,0.24275632162876207,0.3067802104490695,0.3117577946711886,0.5356493516091889,0.5842534744248613,0.16874563180426536,0.4197681240412854,0.519813037219155,0.6877374754394107,0.9322179159816444,0.16014100804227469,0.36696395036672597,0.340828942211562
10307,0.4832052732319417,0.2490498917908839,0.1537789539286857,0.2382063631762443,0.21644231444360043,0.3065064758866453,0.28202950714615493,0.5011595700401285,0.5605734800370545,0.15140554065440012,0.4218119186349018,0.5165129128765371,0.7083485185223213,0.9709055191023812,0.079268560612915,0.2855761533188763,0.2711018295989668
10308,0.5044804170224406,0.2656634853086252,0.16105031916925425,0.2451431461055249,0.23132036443418605,0.304750574361516,0.29640283644700677,0.5220615681536284,0.5776822635692013,0.15909570706923096,0.41260442507485984,0.5139201775757106,0.6909751724787219,0.9575014691676731,0.08894829856394108,0.32067115544540725,0.33704343654067953
10309,0.481117671585015,0.24835919388121377,0.15330480173818886,0.2351331479577913,0.21608069024666454,0.30441858765953345,0.28392280039211293,0.5022393477165953,0.5602353836452472,0.1509839492461588,0.41854098046249266,0.515637938598788,0.7086132935662486,0.9653895057510994,0.07612109265288222,0.28666854238898426,0.29073391559537626
10310,0.49052779865347834,0.24889653054496544,0.16976819784173303,0.2426085297245559,0.2308334260994218,0.3102750644608497,0.32223756962078404,0.5349332244355494,0.5679509217345815,0.16834103091936833,0.41726418434171275,0.5437704342150537,0.6967134315393673,0.8345214863363533,0.3736594622567233,0.5067400012770021,0.3057383962824989
10312,0.5000069578857179,0.26120676732435827,0.16034312520279834,0.24448025828732597,0.22866669619905755,0.3051594331759608,0.2969013249110575,0.5191804694295964,0.5752303131706841,0.15829719225405306,0.41640966404229535,0.5138751392856892,0.6965717639540779,0.9574098614050367,0.09036374507526529,0.3068209864710627,0.33415616762923933
10314,0.49861928246688797,0.2606075233470068,0.16530233140840012,0.24246921642424907,0.23450090014777109,0.30127609397933686,0.3147554627758792,0.5303366775754659,0.5791942206796631,0.16436637245636157,0.407124241512022,0.5099208418266972,0.698438151345133,0.8663240656043728,0.20394958267541177,0.3882439173149002,0.3347233584865888
10451,0.4704577196065694,0.21683267326944825,0.20467864255549617,0.26896991366290285,0.2624777621101,0.3405790118003018,0.39075307717543495,0.6047897987209627,0.5786888763088123,0.20632266600885196,0.4434262839393779,0.5989370835232907,0.684631370479939,0.33475386832655873,0.5826334994465282,0.7737063450857484,0.27329153024633357
10452,0.44693066279949767,0.19898900414267542,0.19610952749850866,0.2594722204904519,0.24740244573550044,0.33769005279056175,0.3771817527846413,0.5826667231838726,0.5666069748771603,0.19280020818188603,0.4521188938752031,0.6015216169786,0.6852435682166544,0.3462482157831031,0.5223445378038569,0.825299607066374,0.2221411845129944
10453,0.44791520613810065,0.19714593079255066,0.19706649277947405,0.26242012542958654,0.24760485882733027,0.3398541518615467,0.3789238629613895,0.583513068272286,0.5658322321166817,0.19501636601747344,0.4567215283101931,0.6056424831344018,0.6743556150085294,0.30310575646138843,0.5130255145404392,0.8376760905048605,0.22696671684223013
10454,0.460721374521478,0.20507557674943555,0.2090202497510979,0.27752386331521184,0.26774551898235877,0.34172093043206103,0.3973577622600812,0.592326962613954,0.579357501242783,0.20559872696137946,0.46655369147898046,0.6093082128417988,0.6855688163363411,0.35638931746778574,0.5112089206140836,0.8370174736918767,0.2375679153070531
10455,0.44682842127937417,0.20075315484664863,0.19948121453619877,0.2623659736430997,0.25398396746607604,0.3362533707041461,0.3812857510243104,0.5803243042118812,0.5690353100586822,0.1947200424997815,0.4543226827174025,0.6008915530796375,0.6975900255045924,0.3346462824997765,0.536174479214518,0.8220850451747482,0.23651739924848153
10456,0.4622628227179035,0.20496898314729256,0.20211744803601278,0.2727712087137338,0.2573378033440686,0.3473370100121458,0.3869634547859439,0.6010445952127841,0.5705846072166109,0.20567864964308616,0.4638840297851155,0.6104007242687901,0.6787214536934357,0.3142596086527856,0.588994999383233,0.7829294671446578,0.239855335607234
10457,0.4519312218099695,0.20164867601992875,0.19908610707440655,0.26761822781965855,0.2533945780804019,0.34162582096057814,0.3795713172910621,0.586526415471891,0.5677095163267232,0.1979284463945748,0.46041665553735966,0.603268904313834,0.6835331690744563,0.36299285194686803,0.5464635014179392,0.8084367415395753,0.234662493575863
10458,0.42944182921903923,0.19600265874068032,0.18627640975170615,0.2519284675664048,0.23763246102462143,0.33197175027371045,0.3524606663453887,0.5549413185546509,0.5529124584562669,0.18147701521068374,0.44614263756540523,0.5771462143316335,0.6859964420591351,0.4294679285999272,0.4233295652232185,0.8291096439471135,0.22810843544532775
10459,0.453188213101568,0.2042744907761059,0.19886180882057714,0.26164440859783417,0.2537565149591153,0.33917530476673025,0.3822104699835057,0.5867610520535335,0.5704830634912632,0.19575167626612971,0.44943039549437175,0.5988754450321392,0.6861402454635925,0.33763053321490943,0.5351997622670983,0.8240486575763627,0.25259371298276484
10460,0.45736459668887364,0.20642389257408839,0.20053152370761343,0.26784366100831936,0.2566792548852049,0.3412358407342576,0.3822320546568067,0.5883917649172761,0.5723485600462364,0.19824383980381588,0.4541806452831164,0.5997710045354282,0.6808968658030412,0.38165521198305574,0.5117016560700107,0.8267138886597261,0.2634955129948333
10461,0.46386861056852086,0.24684515447596028,0.17603727047423015,0.2486972042488568,0.24692933870846112,0.31100629647352385,0.3188216799596763,0.5526653335386783,0.5742288805599929,0.1750877592433213,0.3921578867047312,0.5067484460816658,0.698911220267693,0.6826767402966707,0.2816017262409101,0.6777520580282632,0.32353865628791534
10462,0.4476283446935682,0.22172700544762397,0.17978555346488034,0.24159254302047364,0.23727717082770625,0.32109413792085445,0.3401900098529663,0.5636762147245487,0.5642080367579404,0.17784858008803403,0.4083735427734243,0.5429646570587541,0.6871594389100654,0.5025793488617953,0.47455257103504034,0.7016137187936768,0.2802407540885902
10463,0.4723149384396013,0.26140179125293067,0.18125033420897183,0.23592618604899346,0.24677781227836346,0.3094270339702831,0.32715160341076915,0.5648268019503389,0.578591195811197,0.17736308122214556,0.360729666489642,0.5032945537822591,0.6851355945500163,0.662200944292333,0.37013792080706204,0.6942361427206764,0.3526984813347534
10464,0.49196016121272096,0.26687417296170274,0.17377290920493457,0.2465825947354224,0.2445566111773363,0.3190269201901419,0.313968456677373,0.582202988353105,0.5863809822795824,0.1760540824744224,0.3733219089829131,0.5119839678703783,0.6662277524926378,0.7750893234074602,0.469414676179231,0.5151387273200189,0.3708640981905354
10465,0.4725942382099028,0.2516195976068239,0.17706013447699137,0.2509087581446544,0.24656367552226463,0.3157039808026692,0.32035132413945,0.5571927792838238,0.5773643863713844,0.17560847153485146,0.38931117331037596,0.5163196481174112,0.69941081339649,0.7642256758750345,0.3241701936236995,0.6659906300958579,0.3329646876377444
10466,0.4760510903036909,0.22482177048467972,0.1881506884602868,0.254179625250133,0.2395489790476209,0.353492774570945,0.3605365355428022,0.6179887208077248,0.5601205165656978,0.1992920045384981,0.4253791984341831,0.5823699417774906,0.6712025286213856,0.3205147268513814,0.8293210331495953,0.4657359434992427,0.2835110793291511
10467,0.45868916723173514,0.2165632920469808,0.19039722245559768,0.25813099192420114,0.2478207247382251,0.3358931814744812,0.36135671849960527,0.5874106884261541,0.5665593946406715,0.1937361594041008,0.436279147459617,0.5742400489289694,0.6925307865447955,0.45544536799737045,0.5704499429820915,0.7156674058240007,0.27381534414828546
10468,0.4393826092604326,0.20637059582707104,0.18863066952413604,0.24635542686891254,0.24228844399686844,0.3249128622786634,0.3603467953711532,0.5636070376051514,0.5636298459472074,0.18337816087036482,0.42500514820662805,0.5714198784127277,0.6868455452028182,0.37554491674277213,0.40877706453767876,0.8609204360312467,0.24970661028293006
10469,0.48025001531132455,0.23797202303146137,0.1882592036353257,0.2533031246322684,0.24802569549925252,0.3410610180058085,0.35577083091748685,0.6102654523447597,0.5690979842224182,0.19712455976598914,0.4082746799724464,0.5627510884099471,0.6782471299314582,0.4131235067163177,0.7237142697568982,0.5446951111793772,0.31131565878501344
10470,0.46921694047158896,0.23448578903005787,0.17901250291750087,0.25488191074964434,0.23906787675189614,0.34150798160933243,0.33252668505742905,0.5852048189742811,0.5613705208763985,0.18651087144443518,0.42561478973350747,0.5499721426607008,0.6766231817201893,0.6000328637547563,0.636670868061892,0.5044809498946262,0.3127097917102104
10471,0.48278042664712406,0.282802098619633,0.17244725650897716,0.2295711718909645,0.2457718953786745,0.30271024189958157,0.2935138555815707,0.557391521444776,0.5802997865492169,0.1694721998300147,0.32459293535704675,0.4653902555565084,0.6807152067520537,0.8394506128728297,0.27365780968312275,0.47307527052883747,0.38606279240499985
10472,0.456088937886224,0.20810450175163497,0.2003846627877568,0.2672669046105963,0.2602013990665553,0.33503480374478267,0.38381499264871655,0.5863824472592275,0.5759992568713371,0.19942705540240666,0.4518459114445997,0.5856522406449775,0.6983008303574514,0.4198066162320568,0.4985615662167068,0.7963521673344022,0.27363480425809
10473,0.47209105899797765,0.22355820547438982,0.19854144264592694,0.2569067063865608,0.2551273136866214,0.3352016697298618,0.3827135412494277,0.6011199898104516,0.5793171154712332,0.19865261176080642,0.4162342737477619,0.5826368104442774,0.6688779841466881,0.6184151139431086,0.5758495914237698,0.7812582016386921,0.29522324296775293
10474,0.4292715712869343,0.18861366873293237,0.19393352184415738,0.2567824372812194,0.24592650714797584,0.33504748839118503,0.36972999433067366,0.5704795794540393,0.5565916231826976,0.18845408400983338,0.4654867966129913,0.6046922486495981,0.7230785846599999,0.27086180378796315,0.5527389117553856,0.826329493284659,0.21921740687651434
10475,0.5196001102071485,0.2640478167852053,0.20239467467739541,0.2628507402718647,0.2694761779756824,0.33955584009822326,0.384300163036034,0.6504293988091666,0.5960050181891676,0.213489304149773,0.3857540130872687,0.56993251575554,0.655522319466219,0.3922151218861906,0.7669329474761236,0.5456700068166288,0.37825900357533737
11004,0.4757689292788535,0.2754789746642946,0.17281778581604612,0.23024064519397094,0.25224921063571726,0.28092344816279097,0.3277885569565168,0.5393006388732761,0.5980670804145486,0.1734348048537226,0.34482269842745306,0.4283035004820804,0.6822742807543624,0.6678129087968617,0.237453382317806,0.35030109359186884,0.37119266234552367
11101,0.41299521566729774,0.20947086570383813,0.1684196957021407,0.2262153634923684,0.22195626262565835,0.2994249159235628,0.32552105449405394,0.4990641367786639,0.5473964675519033,0.16531020056455098,0.4062092269868942,0.499764029200304,0.7132090471458418,0.700891886761106,0.3275552074905645,0.5394712346671048,0.2595759141654855
11102,0.4034650341731131,0.2173031993635523,0.15787658685753625,0.2135285999001466,0.21015766501076086,0.2952373038748464,0.29066389773311724,0.47307304917001114,0.5353445373092569,0.15152394641626246,0.3890816405529096,0.4771145016877004,0.7017555440297917,0.7753998425616218,0.27879847626691895,0.5160074412911864,0.27253749374707237
11103,0.4015587643831447,0.21669886041729353,0.15381124076781183,0.21228630874431684,0.20773620311092358,0.29421171810918967,0.2839722108684859,0.46558973638354334,0.535238845585239,0.1463462706468411,0.38932698495843693,0.46885766344110796,0.7055007474022639,0.82686949092455575,0.1727751586846769,0.509881209943331,0.2877476579299985
11104,0.4057291464471721,0.21699027329577514,0.15911514591932296,0.20808877938933346,0.2130559510559192,0.2838437524416345,0.3096048790888043,0.4810278904745408,0.5537309619663712,0.14972147656582616,0.3835367978895578,0.4664996104535248,0.7142706129481871,0.7878187680907873,0.11850778640850683,0.6084361835588779,0.2847632040719374
11105,0.42454679234549864,0.2385325580397377,0.15475143699020524,0.2172697824468463,0.2165899441566513,0.29405524212063716,0.2779373252755265,0.4761088350248313,0.5474957747228516,0.14850616391095223,0.3783031260355901,0.4624182824250987,0.7089052752687801,0.869140173179127,0.13936552810665992,0.4544192858800556,0.3016207166116784
11106,0.40637448110375607,0.2196565157055296,0.1579141795440738,0.20999515628109308,0.21236524251422648,0.29100640725599053,0.296935589438522,0.4786599860414008,0.541655658782228,0.15074110467876953,0.38062144422188576,0.4718811788803093,0.6993449208735351,0.7382378383493464,0.22578265450509713,0.5381326083976427,0.284380112598015
11109,0.31622776601683794,0.1816590212458495,0.11832159566199231,0.14491376746189438,0.14491376746189438,0.2701851217221259,0.2073644135332772,0.3872983346207417,0.4679743582719036,0.10488088481701516,0.31304951684997057,0.41952353926806063,0.7153203256701376,0.8076368167207165,0.2251512143136934,0.27140995990684214,0.14651047208916487
11201,0.3967924280451709,0.22752878991850228,0.1538638883388665,0.19890870166560423,0.19711934974527587,0.29905276852581575,0.27374388154721524,0.4642118251049466,0.5148224072373806,0.14838699998483246,0.3445828066817122,0.4481555586466523,0.6932181994501797,0.7838578308073353,0.38556674322809287,0.3580318290720581,0.2689853348663086
11203,0.47863154723874635,0.23779201164454472,0.19125002442401454,0.25223565823109484,0.24143167289045764,0.34752719028540086,0.37603961044422624,0.6083628288465004,0.5534163619891549,0.20804870876237871,0.41836945218622523,0.5579400734122978,0.6597134552238668,0.2269506161151503,0.9233944121395531,0.259128795800972,0.32382407039385314
11204,0.4555488452558204,0.2445634198341955,0.17784676683497347,0.2715890014742719,0.25686023021847004,0.3078443280461904,0.32784580748710035,0.5173856739400137,0.5746160614111526,0.18342843092880412,0.43648015486971525,0.45555471030853056,0.710144531471977,0.7844297123401891,0.09382161691388596,0.34204596235706514,0.30520407014484224
11205,0.4006731806545736,0.20447823338015048,0.16710602611256617,0.22522727043742796,0.20422599376283573,0.3264086805342508,0.3075722536969803,0.49756897490963675,0.5072908716089999,0.1673495610273205,0.41606118833940314,0.5056160407316617,0.6790961140739601,0.6751511240155736,0.5766738891723598,0.40961624446331074,0.2422675572480418
11206,0.4127669000230851,0.20282080095134322,0.18049384918627415,0.24618578017650503,0.22749715325235328,0.32502606536289924,0.3400245091476378,0.5090854751190039,0.5312272720738745,0.1783437399284172,0.445514832161482,0.5248451602199511,0.7004224146483831,0.6920488409946667,0.4584620856170029,0.6070315371109988,0.2493909684052566
11207,0.4509926370761927,0.21352730274043086,0.19260819186853184,0.2583647203217045,0.24041154510666446,0.34414506742151835,0.37609815876976443,0.5720921124729424,0.5471067143943719,0.20136358313773772,0.4485289653060808,0.5676436121076993,0.6690820416159184,0.39661154956660544,0.7615400470528256,0.5849431979396511,0.2531679982059835
11208,0.4347687773017013,0.208520643619238,0.18499899418599725,0.2468925094737359,0.23390735299495483,0.32884978457378344,0.3668912995955629,0.5502868682994305,0.5470493278896559,0.18968812460179665,0.43871743084505466,0.5454820340071509,0.6887281834184066,0.4835782119980132,0.6996697865159465,0.6360354043516039,0.24481424675105118
11209,0.4397976207589469,0.25296208704201484,0.16320860269566675,0.23316359753079538,0.22784020099296629,0.298558415113806,0.29004706739113956,0.49015290933999034,0.5547250386085733,0.16014513577708697,0.3765473547967045,0.4466991705542153,0.6927434361607111,0.852310100829909,0.1492273696326529,0.40950588068865745,0.32757941443800104
11210,0.4565684242941774,0.2399084139979564,0.17637021180716211,0.24098073638733,0.23005153143862248,0.3303131689087365,0.33448250451545736,0.5557175606083173,0.5480705438577654,0.18442465300758673,0.40033934658226517,0.5154836860847875,0.6752511661122821,0.5598672275591103,0.7346895472463695,0.3151449207521516,0.2983299910040153
11211,0.3984540904885816,0.21163284785112033,0.16401672522632055,0.2416829032180904,0.22003732821836264,0.31197916014954136,0.2887810837204001,0.46192554587978313,0.5189131779250461,0.15982303687773627,0.4252241161541833,0.47736610994239276,0.7037759909612689,0.8677574374821884,0.20615258766710862,0.49366429161018854,0.23885087050527798
11212,0.4810502707498136,0.22316996356887672,0.20434141821615764,0.281956680337252,0.2547141223268711,0.3622828852338681,0.3969034782868918,0.611606581149763,0.5566936154387001,0.22292953971263976,0.47241709409626853,0.590878017325153,0.6553423685229636,0.24492987555815807,0.8893211342887386,0.40917307966204675,0.2834300114779139
11213,0.46499010012546077,0.22733348501558942,0.19139199245446756,0.26084466824093844,0.2416862809503845,0.3493744531919201,0.3665266067628692,0.5841822233830243,0.5459856757543929,0.20624772233101035,0.44042630186403453,0.5574285898367923,0.6781557911327728,0.4690376881786603,0.7926364818022484,0.347744669659401,0.26965998738350083
11214,0.45454025270731213,0.25126285610672067,0.17569390413225697,0.2577664674755349,0.25235602072497415,0.2984193307939093,0.3291251654741089,0.5182309615610491,0.5775016312244077,0.17960940022362923,0.40814589867429074,0.4383210808718127,0.7008009115514646,0.7210971256920438,0.1030999483310773,0.38627750535296984,0.3248945591538326
11215,0.37383037045858314,0.22313483297397624,0.13736210015033554,0.1757224711252435,0.1738508608615861,0.2903388040891772,0.2375974004850809,0.4242158152227734,0.5021311556279631,0.12426038666779787,0.32378966266037096,0.426224606329724,0.6918038181285603,0.8692679490242086,0.18365507426213576,0.42193992690480364,0.2522264691306816
11216,0.4277670271071094,0.21443270879632317,0.17389134787438748,0.2242409664683591,0.21184177916066943,0.33620519879528593,0.33322603385278243,0.5515017018426115,0.5205961596268135,0.18113742794541027,0.4040880416731008,0.5342063750629643,0.6908998434265401,0.507183959439063,0.7635973754792375,0.3454293218192947,0.2666099564579153
11217,0.3914843788629,0.22064259140904066,0.15169128046156674,0.19423100909885627,0.1899542795504038,0.3029272878836035,0.27429013698719057,0.4637616423569238,0.509097708245047,0.14527945295183436,0.3500209473555806,0.4583244249128689,0.6841535409786101,0.764809419183368,0.44173176562354705,0.4107218553828057,0.2707509460119302
11218,0.43066771866483317,0.2293286029470036,0.17195077610036333,0.2499020319424795,0.23498714142641744,0.3085144488047339,0.31701034770290465,0.5032172786023325,0.5523366119349403,0.17252139608291178,0.42223952130966086,0.47527598544383504,0.7065206199576247,0.7636861119418106,0.28933939927892116,0.41995012412733784,0.2708114365206286
11219,0.45610358595087247,0.2344100421347548,0.1891203731909403,0.29403012809670925,0.27265137912776055,0.3164725619427668,0.34591202528429277,0.5266275109579573,0.5764624062220358,0.19826570469307495,0.4777756463419705,0.47701432308095065,0.7071099907201062,0.7990605611845975,0.09956467242828411,0.36014689164764346,0.2797791883368111
11220,0.4120933172747277,0.20402674772096097,0.1818371086163048,0.25057126130464824,0.2438197314880655,0.30034712535181807,0.3610507900052941,0.5078267698703004,0.5639775407835467,0.18072399379767154,0.4548300838032484,0.4683988062383142,0.7139876741807328,0.5486293925968985,0.15131024214876396,0.6323545129008136,0.25853212378564044
11221,0.4261896036837363,0.20993146453821865,0.1808346056935316,0.23309852841385048,0.22383865851786947,0.3295369829806281,0.3508266530107122,0.5426682453459372,0.5342953153069265,0.1826680352293258,0.41839377498203506,0.5407866159884229,0.6921839514539833,0.5358642823909012,0.6409091138229586,0.6193900016110363,0.26117568607937863
11222,0.3844640378817737,0.2205994173001144,0.14429457006854415,0.201696115899815,0.18973450721723803,0.2984093566138819,0.24894158381382953,0.43580189488718196,0.5049057143460992,0.13600127653239463,0.37149474991578585,0.44307922390568644,0.6939878844822595,0.8879099707508855,0.23168828888264498,0.3895850128472316,0.2577158441302042
11223,0.46148946557407544,0.2543170851260267,0.1770379475490447,0.2629062169632512,0.2543696021335212,0.3055424044552028,0.32546949178226814,0.5213582748936394,0.5767122824664606,0.18108053170042224,0.4129871113465359,0.4550077532704722,0.699578428130419,0.7890298431524716,0.19004732054324244,0.37886366067177346,0.32091486840293093
11224,0.5191476586303069,0.2862273901596462,0.2054730378049865,0.29655957447520326,0.2947209604589448,0.3230571555884941,0.37170341881652286,0.5868330480210048,0.6054603693682938,0.21673771905579936,0.4087642385969051,0.5036277326464623,0.66637754410059,0.769439187527553,0.4574705973726373,0.4277617967115181,0.4108791713950458
11225,0.4520773134825478,0.22834247935279534,0.1807671546908993,0.23834452335451,0.22550228038733433,0.33868472060163424,0.34673824550404003,0.5676725690633156,0.538246677310647,0.1901242527759744,0.40869853752641544,0.5365992537166666,0.6736937386008507,0.5366487160878525,0.7775231007867669,0.28993333081268824,0.28757994114302465
11226,0.44963785732416395,0.2209598201178952,0.18151737584090555,0.24307388906304359,0.22531320715758207,0.34139934280038914,0.3547708993017675,0.570395072333317,0.539097014217414,0.19232979929741328,0.4238574312096742,0.5463538701114304,0.6686447431490651,0.3939588764518342,0.7967149112800531,0.4110266496108068,0.2717036950337985
11228,0.45866250961042876,0.25618681093895923,0.1735530257899134,0.25701808594379083,0.2505976297766541,0.29905302880452117,0.32199294904150627,0.5168418447363292,0.5774361038701658,0.17784263358334754,0.4055633009833776,0.43991681985518183,0.6950838981066277,0.7488766790513415,0.08413350406882862,0.36875155650351565,0.32797212684584587
11229,0.46759145741374575,0.2647773833749561,0.1743576199355591,0.25476620677853434,0.24995354591529237,0.3036569203221673,0.31675154330640615,0.5218197669182669,0.5783879271210929,0.1776006570088925,0.3896827950870644,0.447879665414743,0.6908555679714672,0.8229235030839618,0.21113819065367978,0.32237914791614936,0.3372941174557132
11230,0.4639926548393641,0.25610480062218616,0.1787828455858909,0.2636110107655441,0.25488631197398715,0.31174026895845564,0.31996680038013575,0.5252273401851736,0.5707784876599942,0.18310809669800865,0.40754396723387226,0.4694303173192473,0.6953368107689499,0.8254376787819243,0.29803903472363497,0.3293814621994798,0.31081956530300203
11231,0.39984675529436864,0.2260707268780003,0.1564390461452088,0.20878681877212907,0.20001743733138244,0.3034977392648624,0.28064039304551025,0.46166382673414985,0.5173205608579401,0.1506611902365205,0.3631649915646413,0.46112830129521754,0.688538749993115,0.8250120845487181,0.33642989850708316,0.446070106802466,0.2661356894615511
11232,0.37528450537089986,0.19339093148832606,0.16221967441921342,0.21535834327285264,0.2080652690514013,0.2973174010939785,0.31200634844532565,0.46330800598858507,0.5223015802399266,0.15207476829237665,0.41679869669462244,0.47950602194875575,0.723540399359072,0.6417055656771046,0.2121635851904298,0.7240220596657547,0.24155324934891412
11233,0.45860392552112783,0.21679411943743415,0.19204690456437706,0.26056485419134096,0.2372784270687975,0.3545878536873126,0.37150979647955984,0.5892878753754712,0.5402837684959279,0.20685590228723977,0.4525400971503854,0.5736015979397927,0.6772490387701052,0.30530607636783585,0.8503909114628766,0.3978614011133328,0.26679053668013425
11234,0.4617296480413231,0.25273097689837154,0.1713536711721907,0.23799804394296228,0.22893482073647883,0.32212685593317736,0.3202521925608816,0.5433868073175039,0.5551496242740326,0.1768550279473928,0.38601354942294636,0.4927566469708351,0.6901805468077824,0.6421054049400783,0.6751805955673459,0.3122347732088347,0.3209641239890362
11235,0.4922269623604689,0.28486819263587493,0.18269283938208766,0.265162037923555,0.2680498184149971,0.3017458134187744,0.32269760440492884,0.540333747308672,0.5931687397505238,0.18649498106286858,0.3787198479142757,0.452534440769692,0.6857107434685366,0.876626329726523,0.14733206808648047,0.2880345284044472,0.38898328638901647
11236,0.46187142750219096,0.23204379651736948,0.1805589938489661,0.2398173565708118,0.22503476566592343,0.3446922411119804,0.35344994919772016,0.5832645767534077,0.5421659080034588,0.19207708730897646,0.4083000854825118,0.5433889256450773,0.6603949070049712,0.23333195344344274,0.9232052755332959,0.258707823302524,0.29550318471960535
11237,0.3798044759961133,0.1890041630865802,0.16874392749988734,0.2157842904306765,0.20918177935402818,0.30560416736094026,0.3253273568720422,0.47577142461141686,0.5217182142903938,0.15664877280817527,0.4144275065060551,0.5108750738703618,0.7098008731694445,0.6579357880589908,0.331832201190281,0.7906197105165894,0.2186211608566665
11238,0.39690698728871915,0.21516055447854057,0.1564542899876998,0.19676233434472568,0.18990473531618418,0.3161571184068812,0.28737582175423737,0.49232268525710987,0.5028065440829647,0.154917506461446,0.3618079577458979,0.48032129133744333,0.6807993986298427,0.659940966916999,0.6135504441219425,0.3409346109108979,0.2749439478892696
11239,0.5331226343196899,0.2779007304365634,0.2158149468830774,0.3009365315240178,0.29621896901350475,0.34480526456357374,0.40819130644019397,0.6334193149333784,0.6006968848791929,0.23410886673425008,0.4225609039491968,0.5497190048635132,0.6444370075950658,0.4627796295770771,0.8002303250578177,0.40396324574059245,0.38850682588445784
11354,0.45125903049206295,0.23241301449224724,0.1831376861683943,0.24218321611258586,0.2598402961401894,0.2795277758580139,0.38130416840730397,0.5466445876310262,0.6058011831352847,0.18730210176702072,0.4083562429968873,0.43560844330335996,0.6784889775708789,0.4627534569534104,0.16974752952574623,0.4120201826829668,0.33304363673573506
11355,0.4352088174387547,0.21598092441975827,0.18298695015142474,0.2380808957897111,0.25559439406300494,0.27716600140396,0.3898215226881567,0.5422690038661899,0.6026592697499407,0.1875076975616152,0.42145356303476716,0.4297164861654593,0.6900324714638891,0.3654983647329316,0.18423681306658082,0.3940250463022002,0.32917649605416294
11356,0.44649020300643383,0.23483397170059245,0.17153318980589377,0.24050517415405767,0.2437237377758854,0.29098774085185075,0.3385669178822736,0.5196989716856666,0.5828246974107366,0.17035393471950575,0.40685180766568496,0.4750839634813492,0.7023678134122684,0.60862022572381,0.1477144270636151,0.6117638301671663,0.31309933207023494
11357,0.4780533192437053,0.26692240173597537,0.17563220004091717,0.24352228245085733,0.25835188621454525,0.28614795701167195,0.3384478631605167,0.5414155278630376,0.6040174665010738,0.1778473562893478,0.37378834222753654,0.44320092109002096,0.6832317213434286,0.7315273020685507,0.09359391870296893,0.41598833436769156,0.3539006002278395
11358,0.45370196854495864,0.2505374601617394,0.16757129828412182,0.23068284468426492,0.24162622403676445,0.28175874981817495,0.3284167365330348,0.5206313941153909,0.5908288078648888,0.16701704982968382,0.3752416913538462,0.43661743344224574,0.6952384279984324,0.6779573187013271,0.0877510972060148,0.4065973548476455,0.3510949950978464
11360,0.49541241483902726,0.29265510889045643,0.17548128116849437,0.23523965236316965,0.2592705123635034,0.2812505060620585,0.3221856355691563,0.5467521009322096,0.6104054196679737,0.17340602219319418,0.33243358999833067,0.4353315584726219,0.682482719198406,0.8105610516631524,0.08030186905058105,0.3016687613868193,0.4052343621461814
11361,0.4406737264339758,0.2477788774126604,0.16147462343703212,0.21487943175485594,0.22879231162613056,0.2777648333422014,0.31487546273084116,0.5079386276651776,0.5801034203788682,0.1590622368583039,0.3549932219028096,0.4267701322250348,0.7009711192207185,0.688935941727783,0.15278154500359376,0.3560231206458297,0.3460174019405841
11362,0.46988563456235816,0.2701650536012234,0.16948729491713221,0.22769366472779057,0.2475876871725221,0.27735562660990715,0.3241316503712204,0.5311591424679621,0.6008139488476807,0.1678334862178737,0.34325718729313504,0.42847157380290124,0.6813349455496639,0.7096570257537347,0.09741567474604233,0.34232461151408244,0.3945131044327438
11363,0.46350420564289235,0.2687734381147736,0.16308582897545887,0.21768773610484,0.2353784450356221,0.27530158524396087,0.3130013995593728,0.5211641291853744,0.5973450315451797,0.15999058601246705,0.330647399358747,0.4293515629873026,0.6978810698676898,0.7629780623412203,0.10566597248534224,0.42719417895118156,0.36201432667828565
11364,0.4492030176100141,0.2527820149458016,0.16423868909339157,0.21858635765484946,0.23518904799969303,0.27522839412355815,0.3253401114992592,0.5185998514303575,0.5917783665923435,0.16267036579617314,0.35150204044082367,0.4183882604257604,0.7012978837225059,0.6433800333693696,0.1503615270150283,0.2990499863048703,0.34492688203046923
11365,0.44939921089550305,0.24341223511816412,0.17254617405527856,0.2304622857036034,0.2428021838514491,0.2862226413645524,0.34065717788386474,0.5288715258855103,0.5871787908734293,0.17351175230540816,0.37584810460568785,0.44657661873236665,0.6900460527401527,0.5994688097573723,0.2637267925793521,0.4187052912920995,0.3196613042113576
11366,0.4396301504405302,0.2440389009358445,0.1639580552973055,0.2173954467956363,0.2312120623930121,0.2827073650527634,0.32110199468067435,0.5136522538831436,0.5786565973678948,0.16310499621439592,0.3583524341088162,0.4354083420960972,0.6960045146027071,0.6897025017226609,0.23584826810516277,0.30269085556411546,0.3315059125917547
11367,0.4427276524731263,0.23714947674994552,0.1689088535322975,0.2322183433879867,0.2357215331605174,0.29682875368962863,0.3263900467678993,0.515661740947413,0.5730880040846884,0.16950079357566145,0.38883671904627154,0.4618166702989649,0.6918117959624388,0.7202825422094102,0.2821910696600166,0.42236461122689356,0.3121728512075831
11368,0.3986770256809402,0.19085561187512207,0.17325952238072717,0.22347297356353193,0.22449114823790933,0.2992264835503499,0.3458347114509812,0.5015025993136413,0.5473965280258044,0.16468806084341556,0.43444262340594214,0.5387311914691815,0.727085414737671,0.6276728708087921,0.3102545387305692,0.8543441243083795,0.24470074649889192
11369,0.42880259242334007,0.2133701051571966,0.17734791920565723,0.2259545845463006,0.23355298337356123,0.29852875037077653,0.3566669263031034,0.5278100976871606,0.5643737767856088,0.17413841492463494,0.4025693353852738,0.5319494902930618,0.7053936893136383,0.5291320661289424,0.36958778403607767,0.8040772024283307,0.30252913941351095
11370,0.4082539694977268,0.20985167367253021,0.16308028506388283,0.22237313069682083,0.22173795330010881,0.2956159508766414,0.32012383326086963,0.5095237825567561,0.5521671653356599,0.1592960338118722,0.42254841830551537,0.5038884291152012,0.758796403366541,0.6725471930371549,0.3231995329027983,0.627967166389476,0.29206065808186327
11372,0.41628776233273507,0.21547593695232511,0.17069701542533103,0.2173720330392045,0.23020378178882162,0.2818775335677256,0.34488842283831905,0.5056971614331286,0.57016422362424,0.16231566618628665,0.393085654068772,0.49102072089129456,0.7063117586192051,0.7195547846172762,0.12124673822356352,0.7646683496438562,0.30337403975136196
11373,0.4014912709598983,0.2038699977346578,0.16767891363888018,0.21076444169536732,0.2244413365561999,0.27556508523626067,0.34877568472342096,0.5009118578550635,0.5696901826058532,0.16129680784891054,0.3979250035595636,0.45721706237445014,0.7069700785552702,0.5146951314198772,0.1463326942825795,0.6149140497878208,0.29874729180009324
11374,0.4601951656130247,0.25875744362128683,0.16927668624124462,0.22923311443783426,0.24261385697681492,0.2856429692666448,0.3200943497851181,0.5216116043835342,0.5875066060898843,0.16764252561556478,0.3603154081698954,0.4516975309895164,0.6840910240072499,0.7633917823157409,0.18625357488847882,0.42529987338254244,0.3659535924609969
11375,0.4549595403225052,0.2628417391565252,0.1659522115631089,0.21851766164463593,0.2362498844783238,0.28187484351710035,0.3080544232394553,0.5135214663957709,0.5820871562452877,0.1621559275166129,0.3392712723934039,0.4429119523487864,0.6809571111968988,0.7814273782123387,0.16213547130648434,0.4186493787103893,0.35102594091079786
11377,0.4123376729034933,0.2175893746295109,0.16421207090103715,0.2155916120873373,0.22318863020451551,0.2811968647356512,0.3273731160307729,0.4951588289236366,0.564595469169428,0.15830207461620507,0.3919569867424146,0.4579027374000171,0.7147005104897072,0.7060797049105666,0.12717856053639306,0.590422047854646,0.300886900425872
11378,0.44741048818967555,0.2424709239646971,0.1629745137063259,0.2379757219145859,0.233394009003104,0.2957628091466721,0.3043446041513893,0.5037262830510174,0.5693791014529984,0.16077160448053973,0.40399596526766046,0.48503301725110554,0.7030106658104481,0.8588038334910235,0.11456503283315955,0.5711626859363782,0.2946297550336427
11379,0.4742989111030023,0.2647673385152924,0.16745290895041728,0.24668269188272804,0.24476527926433528,0.298501369771501,0.30450019832354375,0.519119120455689,0.5847003771237088,0.1676140220387936,0.3917749591630821,0.4752087903166075,0.6818625390198242,0.8951052765257077,0.10213097153196743,0.47318873387570615,0.3419393130969261
11385,0.42927651567639213,0.2272127020174702,0.16079982303065085,0.23023968498223682,0.22206808563329875,0.297821883349587,0.3037465006758259,0.4896480634858714,0.5569889124663192,0.15498117249500265,0.40688169879542807,0.49862132854220287,0.7027019019019729,0.90190550418543,0.11728334020422715,0.666787917563232,0.26105464731787886
11411,0.4865773605407148,0.2455991028237664,0.18306135056590964,0.23155478964284085,0.23516004811239954,0.33579853725846326,0.36852566623325234,0.6140745292153207,0.5671707217599352,0.1964551666775402,0.3856348191801089,0.5599697672472687,0.6760885367841678,0.1697406291614321,0.9380127860528767,0.2726837649064651,0.3469654546751995
11412,0.47730054582079673,0.23546604848039393,0.18389710060425088,0.23787675157492064,0.23522072033270217,0.33979677577084033,0.36598684663290054,0.6035786831587179,0.5586921398574569,0.19788870265556813,0.40842872675500735,0.5633078159080048,0.6803831111042918,0.1656411817175732,0.9092582702517886,0.2875261169739718,0.3021559754407032
11413,0.4692670891451517,0.2319927204071637,0.17674198014969425,0.22866521543390028,0.22406485338494483,0.3389651352226364,0.35492883416871174,0.5946650853322615,0.5524334211845691,0.18873499516036368,0.4011267848139576,0.5610519302149266,0.6784315442764732,0.18994403406987037,0.9304345037176801,0.2676071217542082,0.3003667570374589
11414,0.5074281482974361,0.28408024094450757,0.178907029644544,0.2676863773794659,0.26848553154428184,0.30362641695153536,0.3238977377678493,0.5498111472952071,0.6061851663201645,0.18286992763415283,0.3974845374009496,0.48644385051435046,0.6931553475635207,0.8827234941047404,0.1597218758624213,0.4850255695346597,0.3777770413322473
11415,0.43668682476304077,0.24170537649166524,0.16195825224304214,0.2166987221936751,0.22374453822550125,0.2914625587873054,0.30400093616199064,0.5010878209804763,0.5644644112442115,0.1555745273654721,0.36379239230589894,0.47237907151094377,0.698048893271522,0.7575054100868804,0.2425395424298327,0.5324463917599629,0.3147114669390192
11416,0.42272101157383607,0.21130668241131292,0.1695065817152544,0.23395140358347374,0.22934017487118824,0.3030177478096546,0.3370497006297994,0.5063384020421582,0.5610295234175754,0.16654949108713518,0.4201822862208648,0.4959271462328499,0.6964255849759113,0.5327527218468726,0.2301915912283985,0.6330069075208877,0.2573854454098024
11417,0.4346664643455261,0.22168125962145221,0.16880769952923144,0.23905378818608497,0.23287552841814874,0.3055470862388085,0.3324041056746469,0.5106325187297672,0.5667546657888864,0.1676481902732925,0.4185420780008894,0.4895542773463599,0.6991282447955487,0.5709535446010552,0.26087068247505085,0.5956776167873988,0.27593820495255955
11418,0.4269394398127337,0.2250796764899184,0.16561276745405992,0.22322761551412523,0.22594509579980507,0.2959131224751116,0.3231741484952899,0.5037568443694184,0.5625335172815122,0.16058427437907935,0.3918158516166442,0.48606604349507415,0.7031676424081719,0.6731824135442467,0.2517682254636747,0.6196338106607442,0.2758404568459322
11419,0.43363403564589786,0.21187770239202605,0.17139402583661761,0.24633170201240875,0.23395878001803194,0.3194335897451118,0.34711770542994624,0.5215600361516081,0.5648204583745622,0.17538233929765681,0.4422525404850589,0.4887914525410216,0.7116772684748397,0.3525026599820131,0.3940800744011776,0.47302821441362175,0.2668788535067277
11420,0.44410366750914937,0.21961430755371522,0.1724978755738074,0.24488555410619914,0.23356397868303552,0.32416109193759884,0.3450064777385163,0.5335439168019624,0.5630930890931359,0.17767707143157455,0.43352841115158325,0.5044899072770853,0.6990296510957492,0.3948160661738083,0.4648559976393039,0.4766972310328925,0.27739926300798046
11421,0.4192302622387521,0.21538276942767773,0.1656830514489212,0.22107815903158962,0.22250316670660664,0.294540846816742,0.33023854329522945,0.4985576935253026,0.5615562375380898,0.157664822136998,0.3959302269653397,0.4980778660909065,0.7064448901372944,0.694200855653734,0.17503968946285578,0.7580322560655564,0.2708329820476819
11422,0.4617447462625635,0.2298268168829719,0.17220128927763093,0.2234431093877037,0.2182803610069126,0.3358661226938582,0.3459353917253298,0.5834243921295401,0.5497386540250085,0.18137769803146755,0.39518878467628854,0.5537523701256883,0.6811421581038686,0.23497989734341437,0.9189428407466079,0.28349744920904857,0.29335625013683586
11423,0.4599666474511754,0.23565826251385635,0.17863307574327675,0.23848363869331904,0.24126733391487948,0.31671433148945866,0.3555399739230276,0.5592571551858496,0.5738730363133835,0.185218619663666,0.4023632342030721,0.5078765584255307,0.694669392873398,0.4054140161898214,0.5952203756931772,0.3808020719266785,0.3235666379006848
11426,0.44814520848960804,0.24710065518124236,0.16567419987261897,0.22461906618081198,0.2343451555284517,0.28575194872716614,0.32428797984563357,0.5198228871153909,0.5815536762523069,0.16501036264834218,0.3716004052401932,0.44670869566714594,0.7013839445233857,0.6435750903350624,0.25569222667124814,0.45278916121450846,0.3115303744031746
11427,0.449214065681923,0.23739443792262568,0.17057027805096447,0.22615253449875064,0.23416387539980962,0.29962834335801436,0.34184562708269195,0.5380072858464106,0.5773706950796689,0.1719629941408706,0.382675854195764,0.47662367840061803,0.6950402951032332,0.5032050473053898,0.4490034525728967,0.44523537636123756,0.3083990449139841
11428,0.4432805867715741,0.2241862789668263,0.17018620039147273,0.2289128744841357,0.2276213317695703,0.31183001771371466,0.3450360743347512,0.5409277852209659,0.5656997978516114,0.1733800258355662,0.40213558061974425,0.5015713649194204,0.6916115815854708,0.41663472297513376,0.5486116126788545,0.45876990753346397,0.2906050407825643
11429,0.4668920073259448,0.23934231735734726,0.1770979832763289,0.23425605044098835,0.23593134590935638,0.31997977229556934,0.3527262501716274,0.5728506990086054,0.5702654313061278,0.18585003802773986,0.39238978885854353,0.5223406658445419,0.6837733526530527,0.4008708479097529,0.7214585486985177,0.3595352664203729,0.31859389762162643
11432,0.43190627440112245,0.22106051069301533,0.17538485159426978,0.22970601643146082,0.23708058091751943,0.29951942269446075,0.3504214087671933,0.5288609464702143,0.5691485121763293,0.1763858956214882,0.39954815945285377,0.4831963829016204,0.6898807257451405,0.48034528649983826,0.3737656618306324,0.5221264922963749,0.2986152369620098
11433,0.46781466751218065,0.22352829880715605,0.18698365341980366,0.2519454359202788,0.24073746563602058,0.3401545338388744,0.37153311532724237,0.5872928327727402,0.5609633158345843,0.19964459019698869,0.44056957729592533,0.5642584050847683,0.6867337249361843,0.24342449799901142,0.7605393722077295,0.48235999627741105,0.28305864545101417
11434,0.48117193143199993,0.23512327475793818,0.18568301448104085,0.24427616366171917,0.23806051366428047,0.3426240164254154,0.36998637898852627,0.6064404073500897,0.5603081481234107,0.20112830729938058,0.4168673469467614,0.5692779627965536,0.6689322529141871,0.18237738899149006,0.9076874369022722,0.29909655604521374,0.3076321423063865
11435,0.44243791034719915,0.2189048263638339,0.17747401494895476,0.23882706050798877,0.23411287499935338,0.318483680014129,0.3519917718900588,0.545086009673684,0.561138825096939,0.18144051728716618,0.42446219345851727,0.52647043048518,0.6968461965672391,0.4152178768597367,0.5525241875935804,0.5404429208077102,0.2832144220598173
11436,0.46519702030084437,0.22298198410080652,0.18100512580075348,0.24429958177809225,0.2330896999172102,0.34183248184293974,0.36188127818294596,0.5874139808255436,0.5536286124703351,0.19531165159350172,0.43433191006087196,0.5613013882776491,0.6973448725649808,0.2616984421842106,0.7780179096671895,0.3853120976497353,0.2640614003371498
11691,0.4797098796433642,0.23421572192898935,0.1937225532683848,0.2717938564337668,0.25989101283451665,0.3392471304554462,0.3732422458668819,0.5833395298474817,0.5743626317184386,0.20402236367332105,0.4499655627702161,0.5679739373411815,0.6689216240693756,0.6240890262291385,0.6713063789561641,0.532248339673423,0.2853685521318818
11692,0.47411007576736736,0.2276721833203526,0.1889588022140371,0.26510227325173125,0.24765614282853665,0.3415500837449533,0.36740215287640077,0.5785960955198376,0.5681924530334582,0.19847454946862145,0.4514927313656658,0.5714862622773242,0.6718034550281681,0.5731713709380389,0.680555770116467,0.5424783906951166,0.26889510040905334
11693,0.46310258803808374,0.2379553869355739,0.16988710513845123,0.24615377581728554,0.2318077546959461,0.3197638664380105,0.32551368917825324,0.5366655189077227,0.5690524268336579,0.1722279642911281,0.4181465371783451,0.5245435972361686,0.6919238847211917,0.7749077834900926,0.43898593050676055,0.5481899328431923,0.27991453863703514
11694,0.4894349464465386,0.2742541565578938,0.17218710666676001,0.24985825903745834,0.252217463810471,0.3025225019081624,0.3138124097412805,0.5397487923458966,0.5947732036258826,0.17326671004502014,0.38000634139617007,0.4858392000668001,0.717977573302234,0.9034416426772388,0.2764970833275505,0.3724148526041718,0.3768600887675856
11697,0.5176871642217914,0.3065941943351178,0.17320508075688773,0.2469817807045694,0.2588435821108957,0.2966479394838265,0.30166206257996714,0.5468089245796927,0.6140032573203501,0.170293863659264,0.34205262752974136,0.4604345773288535,0.7012616353698279,0.9806494859556054,0.05448817177789787,0.22041550751119351,0.40042926143634855
